…
```r
pest_data <- pest_original %>% 
  clean_names()

print(pest_data)
```

```
## # A tibble: 6,461 × 7
##    compound        river         date_sampled          year result resul…¹ group
##    <chr>           <chr>         <chr>                <dbl> <chr>  <chr>   <chr>
##  1 Azinphos-Methyl Clyde River   06/15/2017 12:00:00…  2017 < 0.03 ng/ml   Inse…
##  2 Methamidophos   Huntley River 10/05/2017 12:00:00…  2017 < 5.0  ng/ml   Inse…
##  3 Metconazole     Dunk River    05/28/2018 12:00:00…  2018 < 0.1… ng/ml   Fung…
##  4 Imidacloprid    Clyde River   07/22/2009 12:00:00…  2009 < 0.1  ng/ml   Inse…
##  5 Dimethoate      Wilmot River  08/13/2015 12:00:00…  2015 < 0.04 ng/ml   Inse…
##  6 Chlorpyrifos    Clyde River   07/25/2018 12:00:00…  2018 < 0.01 ng/ml   Inse…
##  7 Carbofuran      Morell River  07/19/2016 12:00:00…  2016 < 0.02 ng/ml   Inse…
##  8 Azinphos-Methyl Wilmot River  07/26/2017 12:00:00…  2017 < 0.03 ng/ml   Inse…
##  9 Metalaxyl       Mill River    08/24/2017 12:00:00…  2017 < 0.03 ng/ml   Fung…
## 10 Clothianidin    Mill River    08/18/2014 12:00:00…  2014 0.01   ng/ml   Inse…
## # … with 6,451 more rows, and abbreviated variable name ¹​result_unit
```
…
## How many rivers were sampled per year

We can list several variables inside `distinct()`. This allows us to request the distinct combinations of those variables, in this case, unique combinations of year and river


```r
 pest_data %>%
  distinct(year, river) 
```

```
## # A tibble: 42 × 2
##    river          year
##    <chr>         <dbl>
##  1 Clyde River    2017
##  2 Huntley River  2017
##  3 Dunk River     2018
##  4 Clyde River    2009
##  5 Wilmot River   2015
##  6 Clyde River    2018
##  7 Morell River   2016
##  8 Wilmot River   2017
##  9 Mill River     2017
## 10 Mill River     2014
## # … with 32 more rows
```
…
**NOTE**: It is a bit counter-intuitive, but what goes inside of the `count()` is not the thing you want to count (i don't want to count years, i want to count rivers!) but what **groupings** you want to do for your counting

## What compounds were analysed?

We can do exactly the same for the compounds


```r
pest_data %>% 
  distinct(compound)
```

```
## # A tibble: 153 × 1
##    compound       
##    <chr>          
##  1 Azinphos-Methyl
##  2 Methamidophos  
##  3 Metconazole    
##  4 Imidacloprid   
##  5 Dimethoate     
##  6 Chlorpyrifos   
##  7 Carbofuran     
##  8 Metalaxyl      
##  9 Clothianidin   
## 10 Hexazinone     
## # … with 143 more rows
```
…
## How many compound of each pesticide group were analysed?

The different pesticides measured belong to different pesticide groups. In order to count how many pesticides of each group were measured, first we make a list of distinct pesticide/group combinations in the dataset with `distinct()` and then we count how many on each group using `count()`  


```r
pest_data %>% 
  distinct(compound, group)
```

```
## # A tibble: 153 × 2
##    compound        group       
##    <chr>           <chr>       
##  1 Azinphos-Methyl Insecticides
##  2 Methamidophos   Insecticides
##  3 Metconazole     Fungicides  
##  4 Imidacloprid    Insecticides
##  5 Dimethoate      Insecticides
##  6 Chlorpyrifos    Insecticides
##  7 Carbofuran      Insecticides
##  8 Metalaxyl       Fungicides  
##  9 Clothianidin    Insecticides
## 10 Hexazinone      Herbicides  
## # … with 143 more rows
```
…
This one is a bit trickier, but it is just a matter of doing things step by step (thank you pipes!). 

We want to know things also **by year** so now we can just add `year` to our `distinct()`


```r
pest_group_year <- pest_data %>% 
  distinct(year, compound, group) %>%  # distinct combinations of year, compound and group
  count(year, group) # Jut like in group_by() we can ask it to count the combinations of more than one variable

print(pest_group_year)
```

```
## # A tibble: 34 × 3
##     year group            n
##    <dbl> <chr>        <int>
##  1  2009 Fungicides       8
##  2  2009 Herbicides       8
##  3  2009 Insecticides     6
##  4  2010 Fungicides       9
##  5  2010 Herbicides       9
##  6  2010 Insecticides     9
##  7  2011 Fungicides       9
##  8  2011 Herbicides      10
##  9  2011 Insecticides     9
## 10  2012 Fungicides       9
## # … with 24 more rows
```
…
# Creating nice summary tables

Let's see what compounds were measured each year:


```r
pest_data %>% 
  distinct(year, compound)
```

```
## # A tibble: 391 × 2
##    compound         year
##    <chr>           <dbl>
##  1 Azinphos-Methyl  2017
##  2 Methamidophos    2017
##  3 Metconazole      2018
##  4 Imidacloprid     2009
##  5 Dimethoate       2015
##  6 Chlorpyrifos     2018
##  7 Carbofuran       2016
##  8 Metalaxyl        2017
##  9 Clothianidin     2014
## 10 Hexazinone       2014
## # … with 381 more rows
```
This is a great format for us to keep on working with the data, but what if i wanted to make it more visually appealing for a paper?

Here is one approach.

Let's start by adding a dummy column of ones, by asking `count()` to count for all the groups:


```r
pest_data %>% 
  distinct(year, compound) %>% 
  count(year, compound)
```

```
## # A tibble: 391 × 3
##     year compound                n
##    <dbl> <chr>               <int>
##  1  2009 Atrazine                1
##  2  2009 Azinphos-Methyl         1
##  3  2009 Azoxystrobin            1
##  4  2009 Carbofuran              1
##  5  2009 Chlorantraniliprole     1
##  6  2009 Chlorothalonil          1
##  7  2009 Dimethoate              1
##  8  2009 Hexazinone              1
##  9  2009 Imidacloprid            1
## 10  2009 Linuron                 1
## # … with 381 more rows
```
…
Now we can use `pivot_wider()`, telling it to fill the empty combinations (i.e. those that don exist in this dataset) with zeros and we have a nice presence/absence table that we can use for a publication (maybe in the SI)


```r
compoun_year_table <- pest_data %>% 
  distinct(year, compound) %>% 
  count(year, compound) %>% 
  pivot_wider(names_from = year, values_from = n, values_fill = 0)

print(compoun_year_table)
```

```
## # A tibble: 153 × 11
##    compo…¹ `2009` `2010` `2011` `2012` `2013` `2014` `2015` `2016` `2017` `2018`
##    <chr>    <int>  <int>  <int>  <int>  <int>  <int>  <int>  <int>  <int>  <int>
##  1 Atrazi…      1      1      1      1      1      1      1      1      1      1
##  2 Azinph…      1      1      1      1      1      1      1      1      1      1
##  3 Azoxys…      1      1      1      1      1      1      1      1      1      1
##  4 Carbof…      1      1      1      1      1      1      1      1      1      1
##  5 Chlora…      1      1      1      1      1      1      1      1      1      1
##  6 Chloro…      1      1      1      1      1      1      1      1      1      1
##  7 Dimeth…      1      1      1      1      1      1      1      1      1      1
##  8 Hexazi…      1      1      1      1      1      1      1      1      1      1
##  9 Imidac…      1      1      1      1      1      1      1      1      1      1
## 10 Linuron      1      1      1      1      1      1      1      1      1      1
## # … with 143 more rows, and abbreviated variable name ¹​compound
```
…
In this case, we are going to include `group` in all the `distinct()` and `count()` steps and see what happens. (It will not change the results because each compound can only belong to one class, so the number of *units* is still the same)


```r
compound_year_with_groups <- pest_data %>% 
  distinct(year, compound, group) %>% 
  count(year, compound, group) %>% 
  pivot_wider(names_from = year, values_from = n, values_fill = 0)

print(compound_year_with_groups)
```

```
## # A tibble: 153 × 12
##    compound group `2009` `2010` `2011` `2012` `2013` `2014` `2015` `2016` `2017`
##    <chr>    <chr>  <int>  <int>  <int>  <int>  <int>  <int>  <int>  <int>  <int>
##  1 Atrazine Herb…      1      1      1      1      1      1      1      1      1
##  2 Azinpho… Inse…      1      1      1      1      1      1      1      1      1
##  3 Azoxyst… Fung…      1      1      1      1      1      1      1      1      1
##  4 Carbofu… Inse…      1      1      1      1      1      1      1      1      1
##  5 Chloran… Inse…      1      1      1      1      1      1      1      1      1
##  6 Chlorot… Fung…      1      1      1      1      1      1      1      1      1
##  7 Dimetho… Inse…      1      1      1      1      1      1      1      1      1
##  8 Hexazin… Herb…      1      1      1      1      1      1      1      1      1
##  9 Imidacl… Inse…      1      1      1      1      1      1      1      1      1
## 10 Linuron  Herb…      1      1      1      1      1      1      1      1      1
## # … with 143 more rows, and 1 more variable: `2018` <int>
```
…
